{
  "project_info": {
    "project_id": "bassblog-debug",
    "project_number": "716839426945",
    "name": "BassBlog Debug"
  },
  "client": [
    {
      "client_info": {
        "mobilesdk_app_id": "1:716839426945:android:ee305234cf3361e7",
        "client_id": "android:pixel.bassblog.debug",
        "client_type": 1,
        "android_client_info": {
          "package_name": "pixel.bassblog.debug",
          "certificate_hash": []
        }
      },
      "oauth_client": [],
      "api_key": [],
      "services": {
        "analytics_service": {
          "status": 1
        },
        "cloud_messaging_service": {
          "status": 1,
          "apns_config": []
        },
        "appinvite_service": {
          "status": 1,
          "other_platform_oauth_client": []
        },
        "google_signin_service": {
          "status": 1
        },
        "ads_service": {
          "status": 1
        }
      }
    }
  ],
  "client_info": [],
  "ARTIFACT_VERSION": "1"
}